{
  "server": {
    "http_server_name": "stream.patrollar.com",
    "http_port": ":8080",
    "https_port": ":443"
  },
  "streams": {
    "600c86076604d00d74532cd6": {
      "url": "rtsp://camera-app.go.ro:1002/stream0?username=andrasi&password=CameraAndrasi17",
      "fps_mode": "probe",
      "hls_segment_min_duration": 2,
      "hls_segment_max_segments": 6
    },
    "600c86196604d00d74532cd7": {
      "url": "rtsp://camera-app.go.ro:1006/stream0?username=andrasi&password=CameraAndrasi17",
      "fps_mode": "probe",
      "hls_segment_min_duration": 2,
      "hls_segment_max_segments": 6
    },
    "600dc66f330a40227b7f2d6e": {
      "url": "rtsp://camera-app.go.ro:1004/stream0?username=andrasi&password=CameraAndrasi17",
      "fps_mode": "probe",
      "hls_segment_min_duration": 2,
      "hls_segment_max_segments": 6
    },
    "600dc67e330a40227b7f2d6f": {
      "url": "rtsp://camera-app.go.ro:554/stream0?username=andrasi&password=CameraAndrasi17",
      "fps_mode": "probe",
      "hls_segment_min_duration": 2,
      "hls_segment_max_segments": 6
    }
  }
}
